{
    "Cocktails": [
        "Sex on the beach",
        "Cosmopoliton",
        "Espresso Martini",
        "Pornstar Martini",
        "Peach Martini",
        "Tequila sunrise",
        "Barbados Sunrise",
        "Sex on the beach",
        "Long Island Iced tea",
        "Woo Woo",
        "Tom Collins",
        "Blue lagoon",
        "Bay Breeze",
        "Sea Breeze",
        "Frozen strawberry daiquiri",
        "Piña colada",
        "Frozen Margarita",
        "Classic mMrgarita"
    ],
    "Vodka": [
        "Smirnoff",
        "Smirnoff Raspberry Crush",
        "Absolute",
        "Absolute Vanilla",
        "Absolute Raspberry",
        "Absolute Passion fruit"
    ],
    "Gin": [
        "Whitley Neil Raspberry",
        "Whitley Neil Peach",
        "Whitley Neil Black Cherry",
        "Whitley Neil Rhubarb and Ginger",
        "Macclesfield Forest Gin",
        "Bombay Sapphire",
        "Bombay Sapphire Citron",
        "Bombay Sapphire Bramble",
        "Curio of Cornwall",
        "McQueen Scottish Gin (Black cherry and vanilla)",
        "Pink 47 London Dry",
        "Brockmans",
        "Beefeater Peach and Raspberry",
        "Chase Pink Elderflower",
        "Lake District Gin",
        "Tanqueray Blackcurrant Royale Gin"
    ],
    "Rum": [
        "Jack Daniels",
        "Jack Daniels Tennessee Honey",
        "Jack Daniels Tennessee Fire",
        "Bacardi White Rum",
        "Jim Beam Black Cherry",
        "Jamaica Cove Rum",
        "Malibu Coconut Rum",
        "Spiced Rum"
    ],
    "Whisky": [
        "The Famous Grouse",
        "Jack Daniels Tennessee Apple whisky",
        "Jameson Irish Whisky"
    ],
    "Tequila": [
        "Kah Tequila Blanco",
        "Olmeca Altos Tequila Plata",
        "Silver Tequila"
    ],
    "Liquers": [
        "Baileys Irish Cream",
        "Khalua Coffee Liquer",
        "Clementine Gin Liquer",
        "Spiced sugar plum Gin Liquer",
        "Strawberry Gin Liquer",
        "Archers Peach Schnapps",
        "Cointreau Orange Liquer",
        "Pimms",
        "JÄGERMEISTER",
        "Limoncello",
        "Blue Curacao",
        "Passoa Passionfruit liquer",
        "Sloe Gin",
        "Chambord Raspberry Liquer"
    ],
    "Shots": [
        "Baby Guinness",
        "Sourz",
        "Jaeger Bombs",
        "Skittle Bombs",
        "Alien Brain Haemorrhage",
        "Brain Damage"
    ],
    "Beer": [
        "Staropramen",
        "Poretti",
        "Heineken",
        "Corona"
    ],
    "White-Wine": [
        "Sauvignon Blanc",
        "Chardonnay",
        "Rose"
    ],
    "Red-Wine": [
        "Malbec",
        "Pinot Noir",
        "Shiraz",
        "Cabernet Sauvignon",
        "Rioja",
        "Port"
    ],
    "Sparkling": [
        "Prosecco",
        "English White sparkling",
        "Rose Prosecco"
    ]
}